\relax 
\@writefile{toc}{\contentsline {paragraph}{1}{1}}
\@writefile{toc}{\contentsline {paragraph}{2}{3}}
\@writefile{toc}{\contentsline {paragraph}{3}{5}}
\@writefile{lof}{\contentsline {figure}{\numberline {1}{\ignorespaces Approximation of function by 7 cubic splines using Chebyshev points as reference, $error=9.04\cdot 10^{-2}$}}{7}}
\@writefile{lof}{\contentsline {figure}{\numberline {2}{\ignorespaces Approximation of function by 7 cubic splines using Chebyshev points with modified end points as reference, $error=5.81\cdot 10^{-2}$}}{7}}
